{
  "images" : [
    {
      "idiom" : "universal",
      "filename" : "cb743a308ad2511.png",
      "scale" : "1x"
    },
    {
      "idiom" : "universal",
      "filename" : "cb743a308ad2511-1.png",
      "scale" : "2x"
    },
    {
      "idiom" : "universal",
      "filename" : "cb743a308ad2511-2.png",
      "scale" : "3x"
    }
  ],
  "info" : {
    "version" : 1,
    "author" : "xcode"
  }
}